{"name":"initialTest","id":"SerenityInitialTest2:initialTest","testCaseName":"SerenityInitialTest2","testSteps":[{"number":1,"description":"Francisco the student get users","duration":29,"startTime":"2020-12-07T12:32:52.830-03:00[America/Santiago]","result":"SUCCESS","precondition":false,"level":0,"children":[{"number":2,"description":"Francisco the student executes a GET on the resource /users?page\u003d1","duration":25,"startTime":"2020-12-07T12:32:52.833-03:00[America/Santiago]","result":"SUCCESS","precondition":false,"level":1,"children":[{"number":3,"description":"GET http://localhost:5000/api/users?page\u003d1\r","duration":0,"startTime":"2020-12-07T12:32:52.857-03:00[America/Santiago]","result":"SUCCESS","restQuery":{"method":"GET","path":"http://localhost:5000/api/users?page\u003d1\r","content":"\r","contentType":"application/json","requestHeaders":"header1\u003dvalue1\r\n\t\t\t\tAccept\u003d*/*\r\n\t\t\t\tContent-Type\u003dapplication/json; charset\u003dUTF-8\r","requestCookies":"\r","responseHeaders":"X-Powered-By: Express\r\nAccess-Control-Allow-Origin: *\r\nContent-Type: application/json; charset\u003dutf-8\r\nContent-Length: 539\r\nETag: W/\"21b-fFOA+z2p0qqZtiTcYG5d6jtK5Cs\"\r\nDate: Mon, 07 Dec 2020 15:32:52 GMT\r\nConnection: keep-alive\r\nKeep-Alive: timeout\u003d5\r","responseCookies":"\r","responseBody":"{\n    \"page\": 1,\n    \"per_page\": 3,\n    \"total\": 12,\n    \"total_pages\": 4,\n    \"data\": [\n        {\n            \"id\": 1,\n            \"email\": \"george.bluth@reqres.in\",\n            \"first_name\": \"George\",\n            \"last_name\": \"Bluth\",\n            \"avatar\": \"https://s3.amazonaws.com/uifaces/faces/twitter/calebogden/128.jpg\"\n        },\n        {\n            \"id\": 2,\n            \"email\": \"janet.weaver@reqres.in\",\n            \"first_name\": \"Janet\",\n            \"last_name\": \"Weaver\",\n            \"avatar\": \"https://s3.amazonaws.com/uifaces/faces/twitter/josephstein/128.jpg\"\n        },\n        {\n            \"id\": 3,\n            \"email\": \"emma.wong@reqres.in\",\n            \"first_name\": \"Emma\",\n            \"last_name\": \"Wong\",\n            \"avatar\": \"https://s3.amazonaws.com/uifaces/faces/twitter/olegpogodaev/128.jpg\"\n        }\n    ]\n}","statusCode":200},"precondition":false,"level":2}]}]},{"number":4,"description":"Then el codigo de respuesta should be (200)","duration":0,"startTime":"2020-12-07T12:32:52.859-03:00[America/Santiago]","result":"SUCCESS","precondition":false,"level":0},{"number":5,"description":"Then usuario no es nulo should be not null","duration":0,"startTime":"2020-12-07T12:32:52.862-03:00[America/Santiago]","result":"SUCCESS","precondition":false,"level":0},{"number":6,"description":"Then el email del usuario should be \u0027george.bluth@reqres.in\u0027","duration":0,"startTime":"2020-12-07T12:32:52.864-03:00[America/Santiago]","result":"SUCCESS","precondition":false,"level":0},{"number":7,"description":"Then el email del usuario should be \u0027https://s3.amazonaws.com/uifaces/faces/twitter/calebogden/128.jpg\u0027","duration":0,"startTime":"2020-12-07T12:32:52.865-03:00[America/Santiago]","result":"SUCCESS","precondition":false,"level":0}],"userStory":{"id":"SerenityInitialTest2","storyName":"Serenity initial test2","storyClassName":"SerenityInitialTest2","path":"","type":"story"},"featureTag":{"name":"Serenity initial test2","type":"story","displayName":"Serenity initial test2"},"title":"Initial test","tags":[{"name":"Serenity initial test2","type":"story","displayName":"Serenity initial test2"}],"startTime":"2020-12-07T12:32:52.829-03:00[America/Santiago]","duration":36,"projectKey":"","manual":false,"testSource":"JUnit","actors":[{"name":"Francisco the student","can":["call an API at http://localhost:5000/api"]}],"result":"SUCCESS"}